<?xml version="1.0" encoding="UTF-8"?>
<svg width="8px" height="7px" viewBox="0 0 8 7" version="1.1" xmlns="http://www.w3.org/2000/svg" xmlns:xlink="http://www.w3.org/1999/xlink">
    <!-- Generator: Sketch 52.2 (67145) - http://www.bohemiancoding.com/sketch -->
    <title>dropdown</title>
    <desc>Created with Sketch.</desc>
    <g id="Page-1" stroke="none" stroke-width="1" fill="none" fill-rule="evenodd">
        <g id="Jalo-e-commerce" transform="translate(-1208.000000, -47.000000)" fill="#07161D">
            <g id="1-fold">
                <g id="header">
                    <g id="middle">
                        <g id="Group-4" transform="translate(235.000000, 30.000000)">
                            <g id="Group-8" transform="translate(848.000000, 0.000000)">
                                <g id="Group-2" transform="translate(0.000000, 10.000000)">
                                    <g id="dropdown" transform="translate(126.000000, 7.000000)">
                                        <polygon id="Rectangle" points="-0.687827192 -1.11022302e-16 6.31217281 -1.11022302e-16 2.81217281 6.38917663"></polygon>
                                    </g>
                                </g>
                            </g>
                        </g>
                    </g>
                </g>
            </g>
        </g>
    </g>
</svg>