<?xml version="1.0" encoding="UTF-8"?>
<svg width="20px" height="18px" viewBox="0 0 20 18" version="1.1" xmlns="http://www.w3.org/2000/svg" xmlns:xlink="http://www.w3.org/1999/xlink">
    <!-- Generator: Sketch 51.3 (57544) - http://www.bohemiancoding.com/sketch -->
    <title>Combined Shape</title>
    <desc>Created with Sketch.</desc>
    <defs></defs>
    <g id="Page-1" stroke="none" stroke-width="1" fill="none" fill-rule="evenodd">
        <g id="Mockup" transform="translate(-1103.000000, -41.000000)" fill="#07161D" fill-rule="nonzero">
            <g id="1-fold">
                <g id="header">
                    <g id="inline" transform="translate(1062.000000, 39.000000)">
                        <g id="socials-networks" transform="translate(0.000000, 2.000000)">
                            <path d="M59.0326697,1.3877852 C59.1513315,1.34645327 59.253752,1.28851786 59.3421399,1.21108855 C59.7579198,0.846858325 60.3895681,0.889419753 60.7529658,1.30615216 C61.1163635,1.72288456 61.0738994,2.35597985 60.6581195,2.72021008 C60.3696984,2.9728718 60.0426683,3.15786052 59.6891019,3.28101364 C59.0890138,3.49003445 58.4831158,3.50802109 57.9208633,3.41913201 C57.798777,3.39983082 57.7025597,3.37888489 57.6364547,3.36115163 C57.4318191,3.30625627 57.2498669,3.18763616 57.1168385,3.02239816 C56.2908126,1.99637001 55.3140017,1.75106514 53.9466631,2.25534005 C52.6640051,2.72838475 52.1521077,3.78947783 52.3936098,5.75276862 C52.4674024,6.35266508 51.998531,6.88102161 51.395484,6.8775256 C48.1810657,6.85889081 45.2341443,5.43384614 42.592503,2.65723748 C42.2114224,2.25668662 42.226464,1.62234141 42.6260994,1.24038781 C43.0257348,0.858434209 43.6586301,0.873510272 44.0397107,1.27406114 C46.01429,3.3495262 48.1064211,4.51374283 50.340464,4.80207203 C50.3731658,2.61847945 51.3486285,1.07782468 53.2561179,0.374341967 C55.2766908,-0.370845985 57.0608096,-0.000601405893 58.4106851,1.45938211 C58.6237216,1.47373485 58.8428313,1.4539091 59.0326697,1.3877852 Z M47.4452978,15.9957062 C51.1444941,15.9957062 54.4323572,14.4184241 56.5852334,10.8234962 C57.3739641,9.50645348 57.8168598,7.97769098 57.9107898,6.22289651 C57.9403732,5.67022088 58.4113634,5.24622579 58.9627758,5.27587698 C59.5141883,5.30552817 59.9372143,5.77759733 59.9076308,6.33027297 C59.7967238,8.40223226 59.2618217,10.2485774 58.2997938,11.8549961 C55.755646,16.1032795 51.8019096,18 47.4452978,18 C45.1516073,18 43.1298051,17.3685946 41.411652,16.1064386 C40.5930147,15.5050674 41.0858085,14.2051598 42.0963203,14.300398 C43.5592548,14.4382759 45.2473249,13.9458249 47.1632362,12.7842507 C47.6357257,12.4977909 48.2504449,12.6494752 48.53625,13.1230471 C48.8220551,13.5966189 48.6707175,14.2127464 48.198228,14.4992062 C47.27381,15.0596601 46.3759484,15.4931831 45.5048293,15.7971036 C46.1168562,15.9295158 46.7631717,15.9957062 47.4452978,15.9957062 Z M42.1994736,5.70785701 C41.985488,5.19763192 42.2246921,4.6101457 42.733751,4.3956698 C43.2428099,4.1811939 43.8289533,4.420946 44.042939,4.93117108 C44.2609565,5.45100951 44.6107882,5.82667013 45.1230373,6.08856137 C45.6149438,6.34005228 45.8103051,6.94360843 45.559389,7.43664177 C45.3084729,7.92967511 44.7062962,8.12548393 44.2143898,7.87399303 C43.2829986,7.3978122 42.6011588,6.66563071 42.1994736,5.70785701 Z M43.1207861,9.69328006 C42.8393832,9.21706716 42.9964256,8.60237561 43.4715501,8.32032806 C43.9466745,8.03828052 44.5599611,8.19568264 44.841364,8.67189554 C45.2346585,9.33746055 45.6305211,9.67838995 46.0201726,9.76855418 C46.5582251,9.89305794 46.8937032,10.4311651 46.769484,10.9704501 C46.6452648,11.5097352 46.1083876,11.8459819 45.5703351,11.7214781 C44.58395,11.4932315 43.77036,10.792542 43.1207861,9.69328006 Z" id="Combined-Shape"></path>
                        </g>
                    </g>
                </g>
            </g>
        </g>
    </g>
</svg>