<?xml version="1.0" encoding="UTF-8"?>
<svg width="14px" height="11px" viewBox="0 0 14 11" version="1.1" xmlns="http://www.w3.org/2000/svg" xmlns:xlink="http://www.w3.org/1999/xlink">
    <!-- Generator: Sketch 51.3 (57544) - http://www.bohemiancoding.com/sketch -->
    <title>arrow-left</title>
    <desc>Created with Sketch.</desc>
    <defs></defs>
    <g id="Page-1" stroke="none" stroke-width="1" fill="none" fill-rule="evenodd" stroke-linecap="round" stroke-linejoin="round">
        <g id="Mockup" transform="translate(-1333.000000, -752.000000)" stroke="#07161D" stroke-width="2">
            <g id="2-about-us" transform="translate(0.000000, 666.000000)">
                <g id="control" transform="translate(1325.000000, 77.000000)">
                    <g id="next-copy">
                        <g id="arrow-left" transform="translate(9.000000, 10.000000)">
                            <path d="M12,4.5 L0,4.5" id="Shape"></path>
                            <polyline id="Shape" points="4.5 9 0 4.5 4.5 0"></polyline>
                        </g>
                    </g>
                </g>
            </g>
        </g>
    </g>
</svg>