<?xml version="1.0" encoding="UTF-8" standalone="no"?>
<svg width="50px" height="50px" viewBox="0 0 50 50" version="1.1" xmlns="http://www.w3.org/2000/svg" xmlns:xlink="http://www.w3.org/1999/xlink">
    <!-- Generator: Sketch 46.2 (44496) - http://www.bohemiancoding.com/sketch -->
    <title>Group 12</title>
    <desc>Created with Sketch.</desc>
    <defs></defs>
    <g id="Site-Web" stroke="none" stroke-width="1" fill="none" fill-rule="evenodd">
        <g id="Homepage-v2" transform="translate(-1082.000000, -2327.000000)">
            <g id="Footer" transform="translate(0.000000, 2197.000000)">
                <g id="Group-9" transform="translate(942.000000, 130.000000)">
                    <g id="Group-12" transform="translate(140.000000, 0.000000)">
                        <rect id="Rectangle-12" fill="#333333" x="7" y="12" width="36" height="28"></rect>
                        <path d="M25,50 C11.1928806,50 0,38.8071194 0,25 C0,11.1928806 11.1928806,0 25,0 C38.8071194,0 50,11.1928806 50,25 C50,38.8071194 38.8071194,50 25,50 Z M17.6511224,18.5969065 C12.8444566,16.1702403 11.6777901,13.9776365 11.6777901,13.9776365 C11.6777901,13.9776365 10.9311236,15.284303 11.2577902,17.7109692 C11.584457,20.1376354 13.8803769,23.2598853 13.8803769,23.2598853 L11.1177902,22.1443017 C11.1177902,22.1443017 11.2577901,23.6843015 12.3311234,25.2709678 C13.4044565,26.8576342 17.1844558,28.8643004 17.1844558,28.8643004 L13.5911231,28.9109671 C13.5911231,28.9109671 13.9177897,29.6576336 15.2244562,30.9176334 C16.5311225,32.1776332 20.1711219,33.297633 20.1711219,33.297633 C20.1711219,33.297633 17.6111056,35.0903841 15.8311227,35.7709658 C14.0511399,36.4515477 11.2577902,36.6109657 11.2577902,36.6109657 C11.2577902,36.6109657 15.4174574,39.1991946 21.8044549,38.5709653 C28.1914525,37.942736 32.5882099,34.9577817 35.991119,29.9843002 C39.3940275,25.0108185 39.0711184,18.550969 39.0711184,18.550969 C39.0711184,18.550969 39.4436736,18.1226821 40.3476067,17.2936522 C41.2515397,16.4646222 41.5299195,16.0575978 41.5299195,16.0575978 L39.2713099,16.2970109 L40.7380838,13.6789022 C40.7380838,13.6789022 39.8428086,14.0858455 39.2242548,14.3137337 C38.605701,14.5416219 37.7755368,14.7695102 37.7755368,14.7695102 C37.7755368,14.7695102 34.4999734,10.756908 29.7399743,13.1369075 C24.9799749,15.5169067 26.5199749,20.8835728 26.5199749,20.8835728 C26.5199749,20.8835728 22.4577881,21.0235727 17.6511224,18.5969065 Z" id="twitter_F" fill="#FFE500"></path>
                    </g>
                </g>
            </g>
        </g>
    </g>
</svg>