<?xml version="1.0" encoding="UTF-8" standalone="no"?>
<svg width="40px" height="50px" viewBox="0 0 40 50" version="1.1" xmlns="http://www.w3.org/2000/svg" xmlns:xlink="http://www.w3.org/1999/xlink">
    <!-- Generator: Sketch 46.2 (44496) - http://www.bohemiancoding.com/sketch -->
    <title>Group 2</title>
    <desc>Created with Sketch.</desc>
    <defs></defs>
    <g id="Site-Web" stroke="none" stroke-width="1" fill="none" fill-rule="evenodd">
        <g id="Homepage-v2" transform="translate(-229.000000, -596.000000)" fill="#333333">
            <g id="Services" transform="translate(0.000000, 525.000000)">
                <g id="Group" transform="translate(65.000000, 0.000000)">
                    <g id="item">
                        <g id="Group-2" transform="translate(164.000000, 71.000000)">
                            <path d="M28.5412693,9.9625256 L40,9.9625256 L40,49.9625256 L0,49.9625256 L0,9.9625256 C0,9.9625256 5.92522049,9.9625256 5.92522049,9.9625256 C5.92522049,9.96252562 18.6775169,22.5711844 18.7569103,22.6223776 C18.7129858,22.5940549 28.5412693,9.9625256 28.5412693,9.9625256 Z M12.9918031,25.5759585 C12.4440454,25.5759585 12,26.0198233 12,26.5759585 C12,27.1282433 12.4553056,27.5759585 12.9918031,27.5759585 L31.0081969,27.5759585 C31.5559546,27.5759585 32,27.1320937 32,26.5759585 C32,26.0236738 31.5446944,25.5759585 31.0081969,25.5759585 L12.9918031,25.5759585 Z M8,25.5759585 L8,27.5759585 L10,27.5759585 L10,25.5759585 L8,25.5759585 Z M12.9918031,32.9112517 C12.4440454,32.9112517 12,33.3551165 12,33.9112517 C12,34.4635365 12.4553056,34.9112517 12.9918031,34.9112517 L31.0081969,34.9112517 C31.5559546,34.9112517 32,34.4673869 32,33.9112517 C32,33.358967 31.5446944,32.9112517 31.0081969,32.9112517 L12.9918031,32.9112517 Z M8,32.9112517 L8,34.9112517 L10,34.9112517 L10,32.9112517 L8,32.9112517 Z M12.9918031,40.2465449 C12.4440454,40.2465449 12,40.6904097 12,41.2465449 C12,41.7988297 12.4553056,42.2465449 12.9918031,42.2465449 L31.0081969,42.2465449 C31.5559546,42.2465449 32,41.8026801 32,41.2465449 C32,40.6942602 31.5446944,40.2465449 31.0081969,40.2465449 L12.9918031,40.2465449 Z M8,40.2465449 L8,42.2465449 L10,42.2465449 L10,40.2465449 L8,40.2465449 Z M18.5883689,16.5457227 C18.5883692,16.5457226 10.1826294,8.62231878 10.1826294,8.62231878 C9.77815699,8.24105566 9.0970285,8.20672209 8.65307475,8.55201945 L8.72444293,8.49651087 C8.28416565,8.83894874 8.23481943,9.43093081 8.62675618,9.83154849 C8.62675618,9.83154849 18.5883692,20.0137994 18.5883692,20.0137995 C18.5883692,20.0137996 32.1705651,1.79487903 32.1705651,1.79487903 C32.5021279,1.35012655 32.4333965,0.689997582 32.0217652,0.324625584 L31.9285607,0.24189547 C31.514818,-0.125350602 30.9164314,-0.0686451701 30.589009,0.37261772 C30.589009,0.37261772 18.5883685,16.5457228 18.5883689,16.5457227 Z" id="todos_F"></path>
                        </g>
                    </g>
                </g>
            </g>
        </g>
    </g>
</svg>